[gd_scene load_steps=3 format=2]

[ext_resource path="res://src/world/HUD.gd" type="Script" id=1]
[ext_resource path="res://assets/sprites/assets.png" type="Texture" id=2]


[node name="HUD" type="CanvasLayer"]
script = ExtResource( 1 )

[node name="LifesLabel" type="Label" parent="."]
margin_left = 32.0
margin_top = 8.0
margin_right = 72.0
margin_bottom = 24.0
text = "0"
valign = 1
__meta__ = {
"_edit_use_anchors_": false
}

[node name="BulletsLabel" type="Label" parent="."]
visible = false
margin_left = 32.0
margin_top = 24.0
margin_right = 72.0
margin_bottom = 40.0
text = "0"
valign = 1
__meta__ = {
"_edit_use_anchors_": false
}

[node name="ScoreLabel" type="Label" parent="."]
margin_left = 112.0
margin_top = 8.0
margin_right = 288.0
margin_bottom = 24.0
text = "0"
align = 2
valign = 1
__meta__ = {
"_edit_use_anchors_": false
}

[node name="LifesSprite" type="Sprite" parent="."]
position = Vector2( 24, 16 )
texture = ExtResource( 2 )
region_enabled = true
region_rect = Rect2( 0, 0, 16, 16 )

[node name="ScoreSprite" type="Sprite" parent="."]
position = Vector2( 296, 16 )
texture = ExtResource( 2 )
region_enabled = true
region_rect = Rect2( 96, 0, 16, 16 )

[node name="CannonSprite" type="Sprite" parent="."]
visible = false
position = Vector2( 24, 32 )
texture = ExtResource( 2 )
region_enabled = true
region_rect = Rect2( 64, 0, 16, 16 )

[node name="GamePauseLabel" type="Label" parent="."]
margin_top = 168.0
margin_right = 320.0
margin_bottom = 208.0
text = "Press space to start"
align = 1
valign = 1
__meta__ = {
"_edit_use_anchors_": false
}
